…
<img src="viz_part3_eda_files/figure-gfm/unnamed-chunk-5-1.png" width="90%" />

## Grouping

``` r
weather_df |>
  group_by(name,month)
```

    ## # A tibble: 2,190 × 7
    ## # Groups:   name, month [72]
    ##    name           id          date        prcp  tmax  tmin month     
    ##    <chr>          <chr>       <date>     <dbl> <dbl> <dbl> <date>    
    ##  1 CentralPark_NY USW00094728 2021-01-01   157   4.4   0.6 2021-01-01
    ##  2 CentralPark_NY USW00094728 2021-01-02    13  10.6   2.2 2021-01-01
    ##  3 CentralPark_NY USW00094728 2021-01-03    56   3.3   1.1 2021-01-01
    ##  4 CentralPark_NY USW00094728 2021-01-04     5   6.1   1.7 2021-01-01
    ##  5 CentralPark_NY USW00094728 2021-01-05     0   5.6   2.2 2021-01-01
    ##  6 CentralPark_NY USW00094728 2021-01-06     0   5     1.1 2021-01-01
    ##  7 CentralPark_NY USW00094728 2021-01-07     0   5    -1   2021-01-01
    ##  8 CentralPark_NY USW00094728 2021-01-08     0   2.8  -2.7 2021-01-01
    ##  9 CentralPark_NY USW00094728 2021-01-09     0   2.8  -4.3 2021-01-01
    ## 10 CentralPark_NY USW00094728 2021-01-10     0   5    -1.6 2021-01-01
    ## # ℹ 2,180 more rows

## Counting

``` r
weather_df |>
  group_by(name,month) |>
  summarize(n_obs = n())
```

    ## `summarise()` has grouped output by 'name'. You can override using the
    ## `.groups` argument.

    ## # A tibble: 72 × 3
    ## # Groups:   name [3]
    ##    name           month      n_obs
    ##    <chr>          <date>     <int>
    ##  1 CentralPark_NY 2021-01-01    31
    ##  2 CentralPark_NY 2021-02-01    28
    ##  3 CentralPark_NY 2021-03-01    31
    ##  4 CentralPark_NY 2021-04-01    30
    ##  5 CentralPark_NY 2021-05-01    31
    ##  6 CentralPark_NY 2021-06-01    30
    ##  7 CentralPark_NY 2021-07-01    31
    ##  8 CentralPark_NY 2021-08-01    31
    ##  9 CentralPark_NY 2021-09-01    30
    ## 10 CentralPark_NY 2021-10-01    31
    ## # ℹ 62 more rows

``` r
weather_df |>
  group_by(month) |>
  summarize(n_obs = n())
```

    ## # A tibble: 24 × 2
    ##    month      n_obs
    ##    <date>     <int>
    ##  1 2021-01-01    93
    ##  2 2021-02-01    84
    ##  3 2021-03-01    93
    ##  4 2021-04-01    90
    ##  5 2021-05-01    93
    ##  6 2021-06-01    90
    ##  7 2021-07-01    93
    ##  8 2021-08-01    93
    ##  9 2021-09-01    90
    ## 10 2021-10-01    93
    ## # ℹ 14 more rows
…
``` r
weather_df |>
  count(name, month) |>
  pivot_wider(
    names_from = name,
    values_from =  n
  )
```

    ## # A tibble: 24 × 4
    ##    month      CentralPark_NY Molokai_HI Waterhole_WA
    ##    <date>              <int>      <int>        <int>
    ##  1 2021-01-01             31         31           31
    ##  2 2021-02-01             28         28           28
    ##  3 2021-03-01             31         31           31
    ##  4 2021-04-01             30         30           30
    ##  5 2021-05-01             31         31           31
    ##  6 2021-06-01             30         30           30
    ##  7 2021-07-01             31         31           31
    ##  8 2021-08-01             31         31           31
    ##  9 2021-09-01             30         30           30
    ## 10 2021-10-01             31         31           31
    ## # ℹ 14 more rows
…
``` r
weather_df |>
  group_by(name, month) |>
  summarize(
    mean_tmax = mean(tmax, na.rm = TRUE),
    median_tmax = median(tmax, na.rm = TRUE),
    sd_tmax = sd(tmax, na.rm = TRUE)
  )
```

    ## `summarise()` has grouped output by 'name'. You can override using the
    ## `.groups` argument.

    ## # A tibble: 72 × 5
    ## # Groups:   name [3]
    ##    name           month      mean_tmax median_tmax sd_tmax
    ##    <chr>          <date>         <dbl>       <dbl>   <dbl>
    ##  1 CentralPark_NY 2021-01-01      4.27         5      3.34
    ##  2 CentralPark_NY 2021-02-01      3.87         2.8    3.99
    ##  3 CentralPark_NY 2021-03-01     12.3         12.2    6.91
    ##  4 CentralPark_NY 2021-04-01     17.6         18.0    5.26
    ##  5 CentralPark_NY 2021-05-01     22.1         22.2    5.63
    ##  6 CentralPark_NY 2021-06-01     28.1         27.8    4.32
    ##  7 CentralPark_NY 2021-07-01     28.4         28.3    3.17
    ##  8 CentralPark_NY 2021-08-01     28.8         28.3    2.95
    ##  9 CentralPark_NY 2021-09-01     24.8         24.4    2.52
    ## 10 CentralPark_NY 2021-10-01     19.9         20.6    3.66
    ## # ℹ 62 more rows
…
## Grouped mutate

``` r
weather_df |>
  group_by(name) |>
  mutate(mean_tmax = mean(tmax, na.rm = TRUE))
```

    ## # A tibble: 2,190 × 8
    ## # Groups:   name [3]
    ##    name           id          date        prcp  tmax  tmin month      mean_tmax
    ##    <chr>          <chr>       <date>     <dbl> <dbl> <dbl> <date>         <dbl>
    ##  1 CentralPark_NY USW00094728 2021-01-01   157   4.4   0.6 2021-01-01      17.7
    ##  2 CentralPark_NY USW00094728 2021-01-02    13  10.6   2.2 2021-01-01      17.7
    ##  3 CentralPark_NY USW00094728 2021-01-03    56   3.3   1.1 2021-01-01      17.7
    ##  4 CentralPark_NY USW00094728 2021-01-04     5   6.1   1.7 2021-01-01      17.7
    ##  5 CentralPark_NY USW00094728 2021-01-05     0   5.6   2.2 2021-01-01      17.7
    ##  6 CentralPark_NY USW00094728 2021-01-06     0   5     1.1 2021-01-01      17.7
    ##  7 CentralPark_NY USW00094728 2021-01-07     0   5    -1   2021-01-01      17.7
    ##  8 CentralPark_NY USW00094728 2021-01-08     0   2.8  -2.7 2021-01-01      17.7
    ##  9 CentralPark_NY USW00094728 2021-01-09     0   2.8  -4.3 2021-01-01      17.7
    ## 10 CentralPark_NY USW00094728 2021-01-10     0   5    -1.6 2021-01-01      17.7
    ## # ℹ 2,180 more rows
…
    ## Warning: Removed 17 rows containing missing values (`geom_point()`).

<img src="viz_part3_eda_files/figure-gfm/unnamed-chunk-15-1.png" width="90%" />

``` r
#hottest in each month
weather_df |> 
  group_by(name,month) |> 
  mutate(tmax_rank = min_rank(desc(tmax))) |> 
  filter(tmax_rank<2)
```

    ## # A tibble: 104 × 8
    ## # Groups:   name, month [72]
    ##    name           id          date        prcp  tmax  tmin month      tmax_rank
    ##    <chr>          <chr>       <date>     <dbl> <dbl> <dbl> <date>         <int>
    ##  1 CentralPark_NY USW00094728 2021-01-02    13  10.6   2.2 2021-01-01         1
    ##  2 CentralPark_NY USW00094728 2021-02-24     0  12.2   3.9 2021-02-01         1
    ##  3 CentralPark_NY USW00094728 2021-03-26    48  27.8  11.1 2021-03-01         1
    ##  4 CentralPark_NY USW00094728 2021-04-28    13  29.4  11.1 2021-04-01         1
    ##  5 CentralPark_NY USW00094728 2021-05-22     0  31.7  18.3 2021-05-01         1
    ##  6 CentralPark_NY USW00094728 2021-06-30   165  36.7  22.8 2021-06-01         1
    ##  7 CentralPark_NY USW00094728 2021-07-06   140  33.3  21.7 2021-07-01         1
    ##  8 CentralPark_NY USW00094728 2021-08-13     0  34.4  25.6 2021-08-01         1
    ##  9 CentralPark_NY USW00094728 2021-09-15     0  29.4  21.7 2021-09-01         1
    ## 10 CentralPark_NY USW00094728 2021-10-15     0  26.1  17.2 2021-10-01         1
    ## # ℹ 94 more rows

## lags: compare with data from yesterday

``` r
weather_df |>
  group_by(name) |>
  mutate(
    yesterday_tmax=lag(tmax),
    temp_change = tmax - lag(tmax,3))
```

    ## # A tibble: 2,190 × 9
    ## # Groups:   name [3]
    ##    name           id      date        prcp  tmax  tmin month      yesterday_tmax
    ##    <chr>          <chr>   <date>     <dbl> <dbl> <dbl> <date>              <dbl>
    ##  1 CentralPark_NY USW000… 2021-01-01   157   4.4   0.6 2021-01-01           NA  
    ##  2 CentralPark_NY USW000… 2021-01-02    13  10.6   2.2 2021-01-01            4.4
    ##  3 CentralPark_NY USW000… 2021-01-03    56   3.3   1.1 2021-01-01           10.6
    ##  4 CentralPark_NY USW000… 2021-01-04     5   6.1   1.7 2021-01-01            3.3
    ##  5 CentralPark_NY USW000… 2021-01-05     0   5.6   2.2 2021-01-01            6.1
    ##  6 CentralPark_NY USW000… 2021-01-06     0   5     1.1 2021-01-01            5.6
    ##  7 CentralPark_NY USW000… 2021-01-07     0   5    -1   2021-01-01            5  
    ##  8 CentralPark_NY USW000… 2021-01-08     0   2.8  -2.7 2021-01-01            5  
    ##  9 CentralPark_NY USW000… 2021-01-09     0   2.8  -4.3 2021-01-01            2.8
    ## 10 CentralPark_NY USW000… 2021-01-10     0   5    -1.6 2021-01-01            2.8
    ## # ℹ 2,180 more rows
    ## # ℹ 1 more variable: temp_change <dbl>
…
